3 Tidy (spatial) data – R for reproducible spatial analysis
…
Some columns are not really so interesting, let’s get rid of them. Use the select() function from the {dplyr} package to do so.

# To select a set of columns you can use the `c()` function
# To keep all the columns except a set you can use a `-` sign in front
# Remove the columns: wikipedia_link, keywords, continent, home_link
# by replacing the `...` below
# Remember to save your data, either overwriting it or creating a new object
# data = select(data, -c(wikipedia_link, keywords, continent, home_link))
# You can also use a pipe syntax `|>` to concatenate your functions
data = data |> 
  select(-c(wikipedia_link, keywords, continent, home_link))

data

# A tibble: 81,344 × 14
       id ident type   name  latitude_deg longitude_deg elevation_ft iso_country
    <dbl> <chr> <chr>  <chr>        <dbl>         <dbl>        <dbl> <chr>      
 1   6523 00A   helip… Tota…         40.1         -74.9           11 US         
 2 323361 00AA  small… Aero…         38.7        -101.          3435 US         
 3   6524 00AK  small… Lowe…         59.9        -152.           450 US         
 4   6525 00AL  small… Epps…         34.9         -86.8          820 US         
 5 506791 00AN  small… Katm…         59.1        -156.            80 US         
 6   6526 00AR  closed Newp…         35.6         -91.3          237 US         
 7 322127 00AS  small… Fult…         34.9         -97.8         1100 US         
 8   6527 00AZ  small… Cord…         34.3        -112.          3810 US         
 9   6528 00CA  small… Gold…         35.4        -117.          3038 US         
10 324424 00CL  small… Will…         39.4        -122.            87 US         
# ℹ 81,334 more rows
# ℹ 6 more variables: iso_region <chr>, municipality <chr>,
#   scheduled_service <chr>, gps_code <chr>, iata_code <chr>, local_code <chr>

Focus on a particular subset of your data. Can you filter the dataset (filter()) to only show those in your home country? You will find the column iso_country with a ISO 3166 alpha-2 coding. If you don’t know the corresponding code, take a look at the Wikipedia link.

# In the `...` below you can add boolean comparisons per column, 
# the function will check for each row if the comparison is 
# true or false and will only keep the trues
data_ec = data |> filter(iso_country == "EC")
data_ec

# A tibble: 357 × 14
       id ident  type  name  latitude_deg longitude_deg elevation_ft iso_country
    <dbl> <chr>  <chr> <chr>        <dbl>         <dbl>        <dbl> <chr>      
 1  41595 EC-00… smal… Cara…       -3.63          -80.2          126 EC         
 2 308084 EC-00… clos… Seym…       -0.472         -90.3           NA EC         
 3 317181 EC-00… clos… Old …       -3.44          -80.0          170 EC         
 4 323803 EC-00… smal… Nuev…       -0.928         -75.4           NA EC         
 5 323805 EC-00… smal… Loro…       -1.62          -76.0          630 EC         
 6 323806 EC-00… smal… Pava…       -1.58          -76.4           NA EC         
 7 323808 EC-00… smal… Jaim…       -1.38          -77.0          849 EC         
 8 323809 EC-00… smal… Tara…       -1.37          -76.9           NA EC         
 9 323810 EC-00… smal… Yuca…       -1.50          -77.5           NA EC         
10 323811 EC-00… smal… Paca…       -1.65          -77.6           NA EC         
# ℹ 347 more rows
# ℹ 6 more variables: iso_region <chr>, municipality <chr>,
#   scheduled_service <chr>, gps_code <chr>, iata_code <chr>, local_code <chr>
…
Take a look at the new spatial object you created, how is it different from the tabular format we had before?

data_sf

Simple feature collection with 357 features and 12 fields
Geometry type: POINT
Dimension:     XY
Bounding box:  xmin: -90.953 ymin: -4.37823 xmax: -75.39438 ymax: 1.264791
Geodetic CRS:  WGS 84
# A tibble: 357 × 13
       id ident   type    name  elevation_ft iso_country iso_region municipality
 *  <dbl> <chr>   <chr>   <chr>        <dbl> <chr>       <chr>      <chr>       
 1  41595 EC-0001 small_… Cara…          126 EC          EC-O       Carabon     
 2 308084 EC-0002 closed  Seym…           NA EC          EC-W       Isla Baltra 
 3 317181 EC-0003 closed  Old …          170 EC          EC-R       Santa Rosa  
 4 323803 EC-0004 small_… Nuev…           NA EC          EC-D       Nuevo Rocaf…
 5 323805 EC-0005 small_… Loro…          630 EC          EC-Y       Lorocachi   
 6 323806 EC-0006 small_… Pava…           NA EC          EC-Y       Pavacachi   
 7 323808 EC-0007 small_… Jaim…          849 EC          EC-Y       Quilloalpa  
 8 323809 EC-0008 small_… Tara…           NA EC          EC-Y       Taracoa     
 9 323810 EC-0009 small_… Yuca…           NA EC          EC-Y       <NA>        
10 323811 EC-0010 small_… Paca…           NA EC          EC-Y       Pacayacu    
# ℹ 347 more rows
# ℹ 5 more variables: scheduled_service <chr>, gps_code <chr>, iata_code <chr>,
#   local_code <chr>, geometry <POINT [°]>
…
